"NODE1","COUNTRY1","NODE2","COUNTRY2","DETAIL","USES","TYPE","ROLE","GOODS1","GOODS2","GOODS3","DIR","DIST","TRAVMODE","TRAVTIME","EARLYDATE","LATEDATE","DATAQLTY","SRC","LONG1","LAT1","COORDSRC1","LONG2","LAT2","COORDSRC2","NODEID1","NODEID2","PROBL","DATAID"
"Aidhab","SD","Jiddah","SA","nkn","trd","sl","maj","A000","B000","C000","nkn","d000dd","shp","t000t","500","1800","QC4","Oliver 2000:153","36.650002","22.233334","ADL3883805","39.200001","21.483334","ADL3672672","798","743","P000","tmcDZm0500_001a"
"Aswan","EG","Aidhab","SD","nkn","trd","cd","maj","A000","B000","C000","nkn","d000dd","rid","t000t","500","1800","QC4","Oliver 2000:153","32.883331","24.083332","ADL1844919","36.650002","22.233334","ADL3883805","741","798","P000","tmcDZm0500_002a"
"Augila","LY","loc01-tmc010322","EG","?Asyut","trd","cd","maj","A000","B000","C000","nkn","d000dd","rid","t000t","500","1800","QC4","Oliver 2000:153","21.286943","29.108055","ADL2740480","31.183332","27.183332","ADL1844928","776","799","P000","tmcDZm0500_003a"
"Awlil","MR","Sijilmasa","MA","nkn","trd","cd","maj","A000","B000","C000","nkn","d000dd","rid","t000t","500","1800","QC4","Oliver 2000:153","-15.967","18.15","TGN1091308","-4.283333","31.283333","ADL2855825","875","789","P000","tmcDZm0500_004a"
"Bilma","NE","Murzuk","LY","nkn","trd","cd","maj","A000","B000","C000","nkn","d000dd","rid","t000t","500","1800","QC4","Oliver 2000:153","12.933333","18.683332","ADL3031981","13.917","25.917","TGN7000653","796","872","P000","tmcDZm0500_005a"
"Bilma","NE","loc02-tmc010322","TD","?Bir Gara","trd","cd","maj","A000","B000","C000","nkn","d000dd","rid","t000t","500","1800","QC4","Oliver 2000:153","12.933333","18.683332","ADL3031981","15.9667","13.1833","www.fallingrain.com","796","874","P000","tmcDZm0500_006a"
"Gao","ML","Bilma","NE","nkn","trd","cd","maj","A000","B000","C000","nkn","d000dd","rid","t000t","500","1800","QC4","Oliver 2000:153","-.05","16.266666","ADL2816398","12.933333","18.683332","ADL3031981","795","796","P000","tmcDZm0500_007a"
"Ghadames","LY","Augila","LY","nkn","trd","cd","maj","A000","B000","C000","nkn","d000dd","rid","t000t","500","1800","QC4","Oliver 2000:153","9.5","30.133333","ADL2743876","21.286943","29.108055","ADL2740480","762","776","P000","tmcDZm0500_008a"
"Jiddah","SA","Mekka","SA","nkn","trd","cd","maj","A000","B000","C000","nkn","d000dd","rid","t000t","500","1800","QC4","Oliver 2000:153","39.200001","21.483334","ADL3672672","39.816666","21.450001","ADL3674396","743","742","P000","tmcDZm0500_009a"
"Kano","NG","Bilma","NE","nkn","trd","cd","maj","A000","B000","C000","nkn","d000dd","rid","t000t","500","1800","QC4","Oliver 2000:153","8.167","12","TGN7000506","12.933333","18.683332","ADL3031981","873","796","P000","tmcDZm0500_010a"
"Sijilmasa","MA","Wargla","DZ","nkn","trd","cd","maj","A000","B000","C000","nkn","d000dd","rid","t000t","500","1800","QC4","Oliver 2000:153","-4.283333","31.283333","ADL2855825","5.333333","31.950001","ADL1060430","789","777","P000","tmcDZm0500_011a"
"Taghaza","ML","Sijilmasa","MA","nkn","trd","cd","maj","A000","B000","C000","nkn","d000dd","rid","t000t","500","1800","QC4","Oliver 2000:153","-5","23.6","ADL2823649","-4.283333","31.283333","ADL2855825","790","789","P000","tmcDZm0500_012a"
"Taodeni","ML","Taghaza","ML","nkn","trd","cd","maj","A000","B000","C000","nkn","d000dd","rid","t000t","500","1800","QC4","Oliver 2000:153","-3.983333","22.6667","www.fallingrain.com","-5","23.6","ADL2823649","869","790","P000","tmcDZm0500_013a"
"Taodeni","ML","Tuat","DZ","nkn","trd","cd","maj","A000","B000","C000","nkn","d000dd","rid","t000t","500","1800","QC4","Oliver 2000:153","-3.983333","22.6667","www.fallingrain.com","-.3039","27.8007","www.ad2000.org","869","870","P000","tmcDZm0500_014a"
"Timbuktu","ML","Gao","ML","nkn","trd","cd","maj","A000","B000","C000","nkn","d000dd","rid","t000t","500","1800","QC4","Oliver 2000:153","-3.016667","16.766666","ADL2824491","-.05","16.266666","ADL2816398","793","795","P000","tmcDZm0500_015a"
"Timbuktu","ML","Taodeni","ML","nkn","trd","cd","maj","A000","B000","C000","nkn","d000dd","rid","t000t","500","1800","QC4","Oliver 2000:153","-3.016667","16.766666","ADL2824491","-3.983333","22.6667","www.fallingrain.com","793","869","P000","tmcDZm0500_016a"
"Tripoli","LY","Augila","LY","nkn","trd","cd","maj","A000","B000","C000","nkn","d000dd","rid","t000t","500","1800","QC4","Oliver 2000:153","13.18","32.892502","ADL2756547","21.286943","29.108055","ADL2740480","774","776","P000","tmcDZm0500_017a"
"Tuat","DZ","Wargla","DZ","nkn","trd","cd","maj","A000","B000","C000","nkn","d000dd","rid","t000t","500","1800","QC4","Oliver 2000:153","-.3039","27.8007","www.ad2000.org","5.333333","31.950001","ADL1060430","870","777","P000","tmcDZm0500_018a"
"Wargla","DZ","Ghadames","LY","nkn","trd","cd","maj","A000","B000","C000","nkn","d000dd","rid","t000t","500","1800","QC4","Oliver 2000:153","5.333333","31.950001","ADL1060430","9.5","30.133333","ADL2743876","777","762","P000","tmcDZm0500_019a"
"Wargla","DZ","Tunis","TN","nkn","trd","cd","maj","A000","B000","C000","nkn","d000dd","rid","t000t","500","1800","QC4","Oliver 2000:153","5.333333","31.950001","ADL1060430","10.217","36.833","TGN7001016","777","868","P000","tmcDZm0500_020a"
"loc01-tmc010322","EG","Aswan","EG","?Asyut","trd","cd","maj","A000","B000","C000","nkn","d000dd","nkn","t000t","500","1800","QC4","Oliver 2000:153","31.183332","27.183332","ADL1844928","32.883331","24.083332","ADL1844919","799","741","P000","tmcDZm0500_021a"
"loc01-tmc010322","EG","Cairo","EG","?Asyut","trd","cd","maj","A000","B000","C000","nkn","d000dd","nkn","t000t","500","1800","QC4","Oliver 2000:153","31.183332","27.183332","ADL1844928","31.25","30.05","TGN7001215","799","871","P000","tmcDZm0500_022a"
"Tripoli","LY","Murzuk","LY","nkn","trd","cd","maj","A000","B000","C000","nkn","d000dd","rid","t000t","500","1800","QC4","Oliver 2000:153","13.18","32.892502","ADL2756547","13.917","25.917","TGN7000653","774","872","P000","tmcDZm0500_023a"
"Timbuktu","LY","Ghat","LY","nkn","trd","cd","maj","A000","B000","C000","nkn","d000dd","rid","t000t","500","1800","QC4","Oliver 2000:153","-3.016667","16.766666","ADL2824491","10.183333","24.950001","ADL2744015","793","761","P000","tmcDZm0500_024a"
"Ghat","LY","Murzuk","LY","nkn","trd","cd","maj","A000","B000","C000","nkn","d000dd","rid","t000t","500","1800","QC4","Oliver 2000:153","10.183333","24.950001","ADL2744015","13.917","25.917","TGN7000653","761","872","P000","tmcDZm0500_025a"
"Murzuk","LY","Augila","LY","nkn","trd","cd","maj","A000","B000","C000","nkn","d000dd","rid","t000t","500","1800","QC4","Oliver 2000:153","13.917","25.917","TGN7000653","21.286943","29.108055","ADL2740480","872","776","P000","tmcDZm0500_026a"
"Timbuktu","LY","Bamako","ML","nkn","trd","rv","maj","A000","B000","C000","nkn","d000dd","shp","t000t","500","1800","QC4","Oliver 2000:158","-3.016667","16.766666","ADL2824491","-7.983","12.667","TGN7000468","793","893","P000","tmcDZm0500_027a"
"Aswan","LY","Meroe","SD","nkn","trd","rv","maj","A000","B000","C000","nkn","d000dd","shp","t000t","500","1800","QC4","Oliver 2000:149","32.883331","24.083332","ADL1844919","31.8167","18.4833","www.fallingrain.com","741","892","P000","tmcDZm0500_028a"